R Notebook
…
nodes <- full_join(sources, destinations, by = "label")
#nodes
nodes <- nodes %>% rowid_to_column("id")
#nodes

per_route <- muestra %>%  
  group_by(popular, second_tag) %>%
  summarise(weight = sum(count)) %>% 
  ungroup()
per_route

## # A tibble: 150 x 3
##    popular second_tag        weight
##    <chr>   <chr>              <dbl>
##  1 .net    c%23              169586
##  2 ajax    javascript         88088
##  3 ajax    jquery            107858
##  4 ajax    php                56926
##  5 android android-fragments  36820
##  6 android android-intent     26447
##  7 android android-layout     49381
##  8 android android-studio     41316
##  9 android java              218511
## 10 android listview           48429
## # ... with 140 more rows
…
