…
nodes <- full_join(sources, destinations, by = "label")
#nodes
nodes <- nodes %>% rowid_to_column("id")
#nodes


per_route <- muestra %>%  
  group_by(popular, second_tag) %>%
  summarise(weight = sum(count)) %>%
  ungroup()
per_route
```

```
## # A tibble: 150 x 3
##    popular second_tag        weight
##    <chr>   <chr>              <dbl>
##  1 .net    c%23              169477
##  2 ajax    javascript         88028
##  3 ajax    jquery            107814
##  4 ajax    php                56893
##  5 android android-fragments  36794
##  6 android android-intent     26439
##  7 android android-layout     49358
##  8 android android-studio     41249
##  9 android java              218350
## 10 android listview           48417
## # ... with 140 more rows
```
…
